[gd_scene load_steps=2 format=1]

[ext_resource path="res://scenes/usual_game/assets/sprites/spaceships/playerShip1_blue.png" type="Texture" id=1]

[node name="Sprite" type="Sprite"]

texture = ExtResource( 1 )


