[gd_scene load_steps=2 format=1]

[ext_resource path="res://scenes/base_game/base_menu_output_variation.gd" type="Script" id=1]

[node name="BaseMenuOutputVariation" type="Node"]

script/script = ExtResource( 1 )

[node name="CanvasLayer" type="CanvasLayer" parent="."]

layer = 1
offset = Vector2( 0, 0 )
rotation = 0.0
scale = Vector2( 1, 1 )

[node name="VBoxContainer" type="VBoxContainer" parent="CanvasLayer"]

anchor/right = 1
anchor/bottom = 1
focus/ignore_mouse = false
focus/stop_mouse = false
size_flags/horizontal = 3
size_flags/vertical = 3
margin/left = 0.0
margin/top = 0.0
margin/right = 984.0
margin/bottom = 560.0
alignment = 1


