{
    "InteractionProfile": {
        "Scenes": {
            "Menu": {
                "InputMapping": {
                    "previous_option": ["Keyboard", "A"],
                    "confirm": ["Keyboard", "RETURN"],
                    "next_option": ["Keyboard", "D"]
                },
                "EventSpecialization": {
                },
                "ComponentSpecialization": {
                    "option": [
                        "res://scenes/usual_game/concrete_entities/concrete_usual_option.tscn"
                    ]
                },
                "InputSubsystemSpecialization": {
                    "usual_menu_input": "res://scenes/base_game/base_menu_input.tscn"
                },
                "OutputSubsystemSpecialization": {
                    "usual_menu_output": "res://scenes/base_game/base_menu_output.tscn"
                }
            },
            "Game": {
                "InputMapping": {
                    "spaceship_move_right": ["Automation", "EventAutomateSpaceshipMoveRight", "input_automation_spaceship_move_right"],
                    "spaceship_move_left": ["Automation", "EventAutomateSpaceshipMoveLeft", "input_automation_spaceship_move_left"],
                    "spaceship_fire_bullet": ["Mouse Button", "Left"],
                },
                "EventSpecialization": {
                    "EventSpaceshipSpawn": [
                        "on_event_spaceship_spawn",
                        "on_event_spaceship_spawn_sound_effect"
                    ],
                    "EventBulletSpawn": [
                        "on_event_bullet_spawn",
                        "on_event_bullet_spawn_sound_effect"
                    ],
                    "EventBombSpawn": [
                        "on_event_bomb_spawn",
                        "on_event_bomb_spawn_sound_effect"
                    ],
                    "EventSpaceshipDestroy": [
                        "on_event_spaceship_destroy",
                        "on_event_spaceship_destroy_sound_effect"
                    ],
                    "EventShieldSpawn": [
                        "on_event_shield_spawn",
                        "on_event_shield_spawn_sound_effect"
                    ],
                    "EventBulletDestroy": [
                        "on_event_bullet_destroy",
                        "on_event_bullet_destroy_sound_effect"
                    ],
                    "EventBombDestroy": [
                        "on_event_bomb_destroy",
                        "on_event_bomb_destroy_sound_effect"
                    ],
                    "EventAlienSpawn": [
                        "on_event_alien_spawn",
                        "on_event_alien_spawn_sound_effect"
                    ],
                    "EventShieldDestroy": [
                        "on_event_shield_destroy",
                        "on_event_shield_destroy_sound_effect"
                    ],
                    "EventAlienDestroy": [
                        "on_event_alien_destroy",
                        "on_event_alien_destroy_sound_effect"
                    ],
                    "EventSpaceshipHit": [
                        "on_event_spaceship_hit",
                        "on_event_shield_hit_sound_effect"
                    ],
                    "EventShieldHit": [
                        "on_event_shield_hit",
                        "on_event_shield_hit_sound_effect"
                    ]
                },
                "ComponentSpecialization": {
                    "spaceship": [
                        "res://scenes/usual_game/concrete_entities/concrete_usual_spaceship.tscn"
                    ],
                    "bullet": [
                        "res://scenes/usual_game/concrete_entities/concrete_usual_bullet.tscn"
                    ],
                    "bomb": [
                        "res://scenes/usual_game/concrete_entities/concrete_usual_bomb.tscn"
                    ],
                    "shield": [
                        "res://scenes/usual_game/concrete_entities/concrete_usual_shield.tscn"
                    ],
                    "alien": [
                        "res://scenes/usual_game/concrete_entities/concrete_usual_alien.tscn"
                    ]
                },
                "InputSubsystemSpecialization": {
                    "usual_game_input": "res://scenes/base_game/base_game_input.tscn",
                    "usual_game_input_automated": "res://scenes/base_game/base_game_input_automated.tscn"
                },
                "OutputSubsystemSpecialization": {
                    "usual_game_output": "res://scenes/base_game/base_game_output.tscn"
                }
            },
            "GameEnd": {
                "InputMapping": {
                },
                "EventSpecialization": {
                },
                "ComponentSpecialization": {
                },
                "InputSubsystemSpecialization": {
                },
                "OutputSubsystemSpecialization": {
                    "usual_game_end_output": "res://scenes/base_game/base_game_end_output.tscn"
                }
            }
        }
    }
}
