{
    "InteractionProfile": {
        "Scenes": {
            "Menu": {
                "InputMapping": {
                    "previous_option": ["Keyboard", "A"],
                    "confirm": ["Keyboard", "RETURN"],
                    "next_option": ["Keyboard", "D"]
                },
                "EventSpecialization": {
                },
                "ComponentSpecialization": {
                    "option": [
                        "res://scenes/usual_game/concrete_entities/concrete_usual_option.tscn"
                    ]
                },
                "InputSubsystemSpecialization": {
                    "usual_menu_input": "res://scenes/base_game/base_menu_input.tscn"
                },
                "OutputSubsystemSpecialization": {
                    "usual_menu_output": "res://scenes/base_game/base_menu_output.tscn"
                }
            },
            "Game": {
                "InputMapping": {
                    "spaceship_move_right": ["Keyboard", "D"],
                    "spaceship_fire_bullet": ["Keyboard", "SPACE"],
                    "spaceship_move_left": ["Keyboard", "A"]
                },
                "EventSpecialization": {
                    "EventSpaceshipSpawn": [
                        "on_event_spaceship_spawn"
                    ],
                    "EventBulletSpawn": [
                        "on_event_bullet_spawn"
                    ],
                    "EventBombSpawn": [
                        "on_event_bomb_spawn"
                    ],
                    "EventSpaceshipDestroy": [
                        "on_event_spaceship_destroy"
                    ],
                    "EventShieldSpawn": [
                        "on_event_shield_spawn"
                    ],
                    "EventBulletDestroy": [
                        "on_event_bullet_destroy"
                    ],
                    "EventBombDestroy": [
                        "on_event_bomb_destroy"
                    ],
                    "EventAlienSpawn": [
                        "on_event_alien_spawn"
                    ],
                    "EventShieldDestroy": [
                        "on_event_shield_destroy"
                    ],
                    "EventAlienDestroy": [
                        "on_event_alien_destroy"
                    ],
                    "EventSpaceshipHit": [
                        "on_event_spaceship_hit"
                    ],
                    "EventShieldHit": [
                        "on_event_shield_hit"
                    ]
                },
                "ComponentSpecialization": {
                    "spaceship": [
                        "res://scenes/usual_game/concrete_entities/concrete_usual_spaceship.tscn"
                    ],
                    "bullet": [
                        "res://scenes/usual_game/concrete_entities/concrete_usual_bullet.tscn"
                    ],
                    "bomb": [
                        "res://scenes/usual_game/concrete_entities/concrete_usual_bomb.tscn"
                    ],
                    "shield": [
                        "res://scenes/usual_game/concrete_entities/concrete_usual_shield.tscn"
                    ],
                    "alien": [
                        "res://scenes/usual_game/concrete_entities/concrete_usual_alien.tscn"
                    ]
                },
                "InputSubsystemSpecialization": {
                    "usual_game_input": "res://scenes/base_game/base_game_input.tscn"
                },
                "OutputSubsystemSpecialization": {
                    "usual_game_output": "res://scenes/base_game/base_game_output.tscn"
                }
            },
            "GameEnd": {
                "InputMapping": {
                },
                "EventSpecialization": {
                },
                "ComponentSpecialization": {
                },
                "InputSubsystemSpecialization": {
                },
                "OutputSubsystemSpecialization": {
                    "usual_game_end_output": "res://scenes/base_game/base_game_end_output.tscn"
                }
            }
        }
    }
}
