[gd_scene load_steps=3 format=1]

[ext_resource path="res://scenes/meta_game/abstract_entities/abstract_bullet.gd" type="Script" id=1]
[ext_resource path="res://scenes/meta_game/components/component_damage.tscn" type="PackedScene" id=2]

[node name="Area2D" type="Area2D"]

input/pickable = false
gravity_vec = Vector2( 0, 0 )
gravity = 98.0
linear_damp = 0.1
angular_damp = 1.0
script/script = ExtResource( 1 )

[node name="ComponentDamage" parent="." instance=ExtResource( 2 )]

m_DamageInflictedValue = 20


